C:\Users\1680395\Desktop\BDD\desafioBDD\src\main\java\page\GuiaMedicoPage.java
C:\Users\1680395\Desktop\BDD\desafioBDD\src\main\java\logger\Reporter.java
C:\Users\1680395\Desktop\BDD\desafioBDD\src\main\java\page\PrincipalPage.java
C:\Users\1680395\Desktop\BDD\desafioBDD\src\main\java\utils\ProjectUtils.java
C:\Users\1680395\Desktop\BDD\desafioBDD\src\main\java\base\SeleniumBase.java
C:\Users\1680395\Desktop\BDD\desafioBDD\src\main\java\selenium\SeleniumMethods.java
